id,timestamp,value,sourceId
835,2024-06-02T08:15:11,373.25157597419314,2
836,2024-12-02T00:23:27,256.9372242752952,22
837,2024-01-02T00:38:16,164.88315221155358,16
838,2024-08-13T16:40:07,59.26845884504883,1
839,2024-05-06T03:51:33,800.6865833730287,20
840,2024-12-05T09:18:41,378.79461519568423,12
841,2024-09-09T14:25:45,899.5246497631155,22
842,2024-04-30T01:33:12,281.065665256289,15
843,2024-09-28T01:01:02,118.13586066823412,15
844,2024-02-28T15:12:33,905.7731492241842,18
845,2024-12-02T13:52:43,33.89554163309994,17
846,2024-08-16T01:34:11,283.7264569310236,18
847,2024-03-25T14:27:09,270.16614636974543,25
848,2024-07-11T13:55:09,341.1890007098,5
849,2024-02-07T17:24:57,51.26400102116047,3
850,2024-01-02T03:33:36,919.5103388113663,3
851,2024-09-15T02:17:12,573.537335242009,14
852,2024-02-19T12:39:24,729.648788532002,1
853,2024-02-23T00:27:52,403.2710840947839,13
854,2024-12-16T07:24:52,113.19700421788681,6
855,2024-03-16T00:43:22,971.2860138923451,16
856,2024-07-04T19:04:49,881.5500834298805,10
857,2024-02-05T02:24:52,846.8084071890175,10
858,2024-04-22T19:16:25,14.297945052330729,22
859,2024-08-20T12:47:03,940.9675039796006,24
860,2024-02-05T19:45:43,886.6131291546267,10
861,2024-07-22T02:52:19,133.63382380513335,23
862,2024-07-05T07:55:52,105.231925302954,14
863,2024-01-30T08:21:09,70.97663704864755,18
864,2024-11-21T12:30:47,95.92971730694578,18
865,2024-02-23T20:33:28,909.0770063429627,14
866,2024-08-22T02:20:47,752.2675046545837,16
867,2024-06-17T00:29:04,250.51554702852542,24
868,2024-12-16T05:15:39,484.9587258131699,8
869,2024-09-13T20:47:51,475.6067844022682,22
870,2024-08-07T12:44:30,824.887706916573,19
871,2024-02-11T01:54:27,222.10599270659725,7
872,2024-02-01T10:50:09,720.26120393578,10
873,2024-09-29T13:17:04,900.735553310692,3
874,2024-10-02T11:59:37,551.5026356963019,13
875,2024-11-15T15:27:43,749.0897744812202,13
876,2024-02-05T19:38:55,506.4430422357219,14
877,2024-06-24T12:46:00,200.4434236961764,23
878,2024-12-25T10:21:36,737.380827669221,11
879,2024-09-13T07:22:15,102.86837824362061,10
880,2024-08-24T11:58:34,498.3698662076785,12
881,2024-02-01T15:19:51,572.9289673074753,2
882,2024-12-30T16:11:26,574.3646735151247,7
883,2024-04-14T11:34:59,445.7203082118224,15
884,2024-07-12T08:17:27,35.92617914288665,17
885,2024-06-22T20:19:18,379.27482175075255,18
886,2024-04-01T20:17:10,236.10483300110207,12
887,2024-10-02T19:31:58,409.51823596933446,8
888,2024-04-17T19:08:18,763.0304745884754,17
889,2024-10-25T12:11:16,323.0879876614643,22
890,2024-07-05T15:38:04,405.84694019409307,13
891,2024-10-28T17:49:35,952.4350523557181,13
892,2024-04-12T09:20:56,518.8624442183591,25
893,2024-02-12T12:32:15,960.0790858295795,12
894,2024-09-28T19:00:44,64.7979737024128,1
895,2024-06-28T01:57:00,970.4426856303118,21
896,2024-03-27T15:45:32,663.3523044788581,9
897,2024-05-10T15:55:49,792.7712010281003,20
898,2024-07-28T03:33:55,496.3030727086981,17
899,2024-10-26T21:53:22,392.8548518765045,18
900,2024-06-30T17:00:48,830.0008827813656,11
901,2024-11-22T20:12:59,828.90067968158,14
902,2024-10-16T03:59:21,657.0556358971354,4
903,2024-05-08T13:30:50,454.08932694500135,11
904,2024-05-09T07:22:40,738.2089267828269,24
905,2024-03-28T00:22:22,639.1346423399731,6
906,2024-06-06T23:20:36,881.8866872707415,10
907,2024-07-28T10:26:00,701.0849373753595,20
908,2024-04-17T06:07:53,745.2416671542833,21
909,2024-02-06T05:49:40,237.16187907902952,4
910,2024-12-03T02:17:27,769.4173337820639,4
911,2024-03-16T22:58:22,674.9665269588064,11
912,2024-07-15T16:16:32,733.0410309782452,17
913,2024-07-09T09:55:48,444.59394435393193,18
914,2024-06-17T23:41:52,904.8839376682777,25
915,2024-12-08T21:29:14,979.6911645686044,22
916,2024-11-29T17:09:36,557.7483266898575,19
917,2024-07-27T00:08:18,905.8726719681654,6
918,2024-04-30T01:42:09,152.7884792724913,10
919,2024-04-11T18:17:33,611.9613808376619,7
920,2024-03-28T17:59:37,915.8681832044655,17
921,2024-10-05T10:56:18,906.6388443110072,13
922,2024-01-28T13:52:50,947.0575966710871,4
923,2024-02-27T01:41:52,776.8709325637739,5
924,2024-03-26T07:22:16,837.9738852296716,15
925,2024-08-16T13:37:54,458.3374350429674,14
926,2024-01-06T19:11:44,77.89123989588175,10
927,2024-10-28T02:39:57,332.4978805203599,15
928,2024-07-17T16:10:13,441.3515664596982,3
929,2024-06-28T10:24:57,200.5002785108848,3
930,2024-04-05T02:06:13,691.152298633702,24
931,2024-07-21T07:11:06,296.8838534264999,14
932,2024-03-07T09:00:25,392.0115602138197,2
933,2024-04-08T21:45:28,760.5133508654611,1
934,2024-09-20T13:41:51,144.83142911041404,3
935,2024-06-07T03:07:47,524.2609019404496,9
936,2024-11-02T20:14:50,769.6338630736861,6
937,2024-06-02T01:33:11,859.6731865227523,9
938,2024-08-23T04:52:28,205.3975747754334,25
939,2024-04-07T15:56:12,216.4006575844275,9
940,2024-10-25T17:02:28,601.613929211204,12
941,2024-11-05T05:44:19,272.1201113540852,14
942,2024-05-24T10:17:11,370.5031439675511,14
943,2024-10-15T09:02:03,924.7305536515728,16
944,2024-11-28T16:34:57,945.3366153577155,1
945,2024-02-21T09:12:59,778.5120126736286,21
946,2024-04-20T02:18:48,376.81948272007617,2
947,2024-10-05T08:54:58,16.23966572818858,25
948,2024-10-26T17:01:52,362.60371049186404,20
949,2024-03-12T02:49:22,169.55527632164248,24
950,2024-03-21T22:45:17,175.1850473105281,14
951,2024-11-22T06:04:56,690.3204015691539,3
952,2024-05-02T05:03:41,267.11923547489914,18
953,2024-10-17T03:20:34,144.64865085464584,10
954,2024-03-20T05:14:18,156.99533727423898,14
955,2024-01-04T10:27:52,64.35235325401855,18
956,2024-10-08T01:29:28,166.92544942851163,14
957,2024-09-23T15:14:19,764.5904905538596,12
958,2024-05-18T17:46:25,297.20342497399963,11
959,2024-03-24T06:26:51,189.2140626723725,12
960,2024-08-15T11:38:15,731.8109769866787,17
961,2024-01-01T21:45:54,655.8952259838657,7
962,2024-09-05T14:03:56,937.762653328394,14
963,2024-07-09T07:52:47,905.4036217737078,9
964,2024-10-04T08:24:55,789.4628220696442,4
965,2024-01-14T08:25:40,486.95056923218027,3
966,2024-12-02T21:02:52,915.9692867443734,20
967,2024-03-23T22:18:53,552.6313591185499,11
968,2024-08-21T05:21:38,394.23657120706133,24
969,2024-06-06T08:03:27,159.1407135667049,1
970,2024-10-11T07:08:04,764.2158305298302,21
971,2024-11-22T04:21:13,461.7238409118114,23
972,2024-10-08T09:26:17,129.35789963515566,8
973,2024-09-09T21:03:56,104.38868158538506,1
974,2024-01-15T20:47:08,132.18149540055612,5
975,2024-08-25T07:49:39,403.30515681646574,12
976,2024-09-13T06:25:39,535.3134263610824,21
977,2024-10-24T00:54:08,274.12036647852347,15
978,2024-11-20T03:28:21,83.90703737913097,1
979,2024-10-08T11:46:41,659.8636135952985,16
980,2024-10-31T23:04:20,566.4148308550223,11
981,2024-03-06T12:38:19,668.3804876959194,6
982,2024-08-07T15:38:05,673.6461832681447,7
983,2024-01-27T00:55:46,785.6731034109868,17
984,2024-04-17T06:27:53,835.2203574038108,11
985,2024-11-05T18:47:32,471.69525068152996,20
986,2024-03-18T05:27:32,893.7212198514242,12
987,2024-11-15T06:29:02,114.32704342603017,10
988,2024-12-03T05:06:06,848.449906840424,22
989,2024-03-24T14:01:46,735.9714863626103,10
990,2024-08-17T00:23:15,55.90323133675956,8
991,2024-05-01T20:33:33,806.2987028865838,4
992,2024-02-18T08:14:35,469.57886157800044,14
993,2024-11-16T05:10:53,676.5825907477587,10
994,2024-02-12T23:50:06,328.54451200259194,5
995,2024-02-19T11:07:47,362.5631680908115,4
996,2024-01-30T14:33:11,33.341512411543036,7
997,2024-06-25T23:27:01,376.5076034301986,14
998,2024-03-06T22:50:35,136.9698649814368,16
999,2024-03-30T09:44:53,847.1491486320857,4
1000,2024-05-25T11:58:37,211.5031233240614,2
