id,timestamp,value,sourceId
168,2024-04-21T00:13:16,957.1983039449236,13
169,2024-02-03T08:05:17,566.3366650301558,1
170,2024-07-05T10:11:24,579.3264488267189,6
171,2024-12-22T03:13:42,194.8975986508683,18
172,2024-09-22T01:38:30,467.5070214621502,15
173,2024-08-11T23:08:26,278.0009481447244,21
174,2024-12-30T16:59:43,153.74896903374434,14
175,2024-03-25T04:36:02,989.6258239542445,9
176,2024-07-11T10:45:40,210.67001449682186,1
177,2024-03-17T21:52:07,744.471361459098,10
178,2024-02-22T00:36:16,413.07848073163046,23
179,2024-07-15T07:42:41,918.7734997435276,15
180,2024-10-14T05:35:50,674.7120049327223,25
181,2024-02-25T05:38:35,543.3859256319972,2
182,2024-01-04T11:52:29,696.6368916804187,25
183,2024-12-29T03:22:11,956.982042622064,15
184,2024-06-30T23:55:54,459.27996407467987,21
185,2024-09-03T20:08:43,352.4785179527067,3
186,2024-01-13T07:13:52,449.5774247579718,21
187,2024-07-06T00:42:38,137.54718065497784,15
188,2024-01-13T15:08:37,857.4169819147097,22
189,2024-06-10T16:47:17,217.27029942868202,15
190,2024-09-17T04:55:29,209.9603121081315,20
191,2024-01-06T07:45:56,589.4080251079331,13
192,2024-03-06T08:18:14,827.2779098698542,25
193,2024-04-28T11:53:07,218.80587902742644,11
194,2024-09-29T04:28:48,749.0937147559473,18
195,2024-02-12T00:21:03,432.35941880142923,19
196,2024-11-28T21:23:21,355.7566434452164,13
197,2024-02-19T07:06:12,392.59969341610366,9
198,2024-06-28T17:50:34,772.0868129684503,24
199,2024-09-24T16:21:26,0.3363480414320108,9
200,2024-10-13T15:16:06,956.8727383845153,23
201,2024-05-30T21:56:55,895.7764249876902,4
202,2024-07-16T13:48:28,91.97101423130549,23
203,2024-04-30T21:34:59,660.8814383209757,22
204,2024-02-27T22:12:32,635.6716472782052,18
205,2024-06-01T02:34:14,151.1159234835412,16
206,2024-11-08T12:53:32,824.6456856007153,15
207,2024-02-20T18:53:19,34.13154660002127,21
208,2024-10-28T16:30:57,33.364493467965886,6
209,2024-09-28T17:48:54,961.4117219357499,5
210,2024-09-26T13:19:11,825.8795829959134,15
211,2024-12-07T03:36:09,779.0114734694201,13
212,2024-02-15T03:07:32,596.0516356313395,14
213,2024-02-29T23:12:44,468.15703324305656,2
214,2024-05-05T06:18:05,282.8326672311143,11
215,2024-11-26T19:38:58,47.43265137664909,3
216,2024-10-08T19:08:56,281.04704579784146,24
217,2024-04-10T15:06:28,654.9647148940073,8
218,2024-01-25T01:01:14,73.55915355102537,21
219,2024-02-07T23:54:50,942.353224138866,4
220,2024-12-19T21:01:55,869.7941349545011,8
221,2024-10-17T00:13:23,451.303645555075,19
222,2024-01-23T18:31:24,693.3110722948335,5
223,2024-07-30T11:49:19,383.5810250440538,3
224,2024-02-01T02:12:06,911.5606544961242,22
225,2024-09-09T09:27:43,623.8105110163185,4
226,2024-03-06T06:38:46,192.20858515059814,2
227,2024-01-22T11:12:34,24.409613718970434,22
228,2024-08-08T13:14:13,839.5281158639748,25
229,2024-11-02T18:28:03,599.9410759123726,17
230,2024-04-27T13:01:40,201.62902426032792,8
231,2024-06-11T12:11:50,379.5000188840927,4
232,2024-09-13T18:24:05,476.50850981973224,20
233,2024-11-09T06:18:42,788.7117754427212,12
234,2024-08-19T14:42:18,573.1773570363312,14
235,2024-05-20T13:36:56,138.59345385354482,19
236,2024-02-10T22:33:05,649.386115194414,20
237,2024-12-30T08:09:47,910.2639057887254,11
238,2024-05-29T10:55:28,746.5937794647648,12
239,2024-05-08T19:15:08,687.1718624119014,23
240,2024-07-14T16:49:04,739.351169682403,20
241,2024-02-24T04:38:38,847.6623890976362,6
242,2024-09-11T14:11:45,43.79231138418038,2
243,2024-11-19T00:38:15,112.80014407225924,1
244,2024-04-28T16:40:02,576.0041962385335,3
245,2024-10-18T14:33:05,311.18835379110755,5
246,2024-12-08T03:31:39,4.505769065012655,1
247,2024-03-20T15:27:39,419.2479376523567,19
248,2024-05-15T15:46:50,599.9311267617647,2
249,2024-01-18T05:14:18,121.49387063301198,11
250,2024-07-01T04:17:16,556.6775927124401,1
251,2024-03-11T18:35:05,550.6078738340628,18
252,2024-03-23T18:16:29,182.0144603854378,5
253,2024-05-17T14:00:01,289.65495903889394,8
254,2024-07-23T14:20:12,535.8196459760763,11
255,2024-04-03T00:15:41,867.3642337022427,12
256,2024-03-11T03:53:12,168.4483770688212,25
257,2024-02-21T20:17:18,598.3872197092797,12
258,2024-12-05T19:27:53,70.25712729862389,23
259,2024-06-09T02:49:58,251.07672873937148,17
260,2024-11-27T13:49:00,912.0596227912567,15
261,2024-09-26T05:18:08,766.110206812202,23
262,2024-04-15T01:10:06,291.2857677444456,5
263,2024-03-13T11:55:41,435.9520068180481,7
264,2024-09-15T20:39:03,171.79872619136216,25
265,2024-11-07T17:54:29,969.7180754612586,23
266,2024-11-27T01:12:12,773.6147459114873,16
267,2024-11-19T20:17:24,376.0957014736456,8
268,2024-11-11T07:57:45,859.2599760156616,13
269,2024-04-28T00:14:36,630.3034857844971,3
270,2024-05-25T13:13:10,543.6422265931884,23
271,2024-04-26T07:21:38,97.89402305182738,13
272,2024-09-12T12:48:57,297.6459168287049,6
273,2024-10-07T06:48:19,13.33043378873966,16
274,2024-09-26T15:20:30,959.9005208297862,23
275,2024-04-02T01:23:30,579.2705619244459,11
276,2024-03-03T08:13:41,68.6883975110295,16
277,2024-11-13T05:39:19,483.93842101984796,23
278,2024-11-19T20:18:50,410.8214113629139,12
279,2024-05-11T13:45:50,706.8615012765805,17
280,2024-10-10T01:17:34,422.68856161756906,13
281,2024-10-28T23:30:16,653.4478326446346,7
282,2024-12-16T02:53:13,122.27067194492281,22
283,2024-03-04T02:38:44,967.9625154425986,19
284,2024-09-10T10:50:39,330.4668369048934,4
285,2024-09-08T11:49:37,633.6268951893002,5
286,2024-04-24T19:27:43,386.84970309652834,14
287,2024-12-29T02:44:34,270.6589848242983,19
288,2024-10-17T10:58:34,857.3753801681335,17
289,2024-12-07T14:54:04,68.31768884244372,4
290,2024-06-17T09:09:49,294.3139733384913,6
291,2024-12-27T21:28:43,845.0216093842553,14
292,2024-08-12T14:11:49,256.8893490872434,25
293,2024-06-29T19:57:26,380.6510305029076,18
294,2024-04-08T15:18:09,626.5724196276665,7
295,2024-08-02T16:21:34,457.54309490007284,8
296,2024-10-19T10:11:10,162.76259595573762,21
297,2024-01-03T06:31:54,730.0350565274676,20
298,2024-12-29T14:14:27,51.79320975649959,1
299,2024-04-11T21:00:17,312.12277446586165,4
300,2024-01-04T15:50:56,127.38615045823221,6
301,2024-10-14T16:16:59,628.2962606010276,4
302,2024-07-15T19:50:30,417.87497515260577,13
303,2024-07-22T17:19:07,541.5362958774435,17
304,2024-10-25T07:13:46,232.07100259840186,23
305,2024-08-08T19:49:40,979.4308087721936,1
306,2024-01-02T15:02:10,39.99793436135357,5
307,2024-07-09T08:30:22,574.2354858288359,1
308,2024-12-04T14:41:49,483.752566908922,25
309,2024-12-08T03:45:28,227.94598919996645,7
310,2024-09-06T00:19:16,911.966347458761,8
311,2024-11-16T06:10:43,859.5126924363361,17
312,2024-06-13T09:57:26,41.785660754787735,11
313,2024-05-31T07:01:03,773.1927422634095,7
314,2024-09-29T21:17:29,297.2311263373262,11
315,2024-12-30T08:52:44,422.204590076362,21
316,2024-09-18T06:57:27,13.779692695574553,14
317,2024-05-29T15:19:25,523.8108180419898,18
318,2024-01-18T14:15:19,506.8092394173924,21
319,2024-08-05T12:11:01,641.3126361515504,23
320,2024-10-04T12:43:42,888.3484412187846,25
321,2024-09-20T01:05:40,255.62522621298967,23
322,2024-07-11T17:18:01,556.16415422222,23
323,2024-12-07T10:16:54,116.14321693539998,18
324,2024-04-27T02:14:00,173.02886535273288,12
325,2024-11-09T08:27:02,210.96013918403423,15
326,2024-12-31T21:44:52,277.8887969432118,20
327,2024-11-05T12:43:20,412.2844005126729,9
328,2024-04-25T13:46:59,295.71771827617243,23
329,2024-05-15T09:31:04,2.4333030888057383,9
330,2024-03-24T17:43:22,219.95612806665977,2
331,2024-06-05T00:28:25,27.345427058900196,24
332,2024-08-07T17:13:58,935.4948797745598,1
333,2024-02-28T15:03:24,759.8654401101364,19
334,2024-07-15T01:47:49,347.9510909500921,2
